<svg width="233" height="233" viewBox="0 0 233 233" fill="none" xmlns="http://www.w3.org/2000/svg">
<path d="M116.5 233C180.841 233 233 180.841 233 116.5C233 52.1588 180.841 0 116.5 0C52.1588 0 0 52.1588 0 116.5C0 180.841 52.1588 233 116.5 233Z" fill="#262262"/>
<path d="M116.501 176.155C149.448 176.155 176.156 149.043 176.156 115.598C176.156 82.1527 149.448 55.0402 116.501 55.0402C83.5542 55.0402 56.8457 82.1527 56.8457 115.598C56.8457 149.043 83.5542 176.155 116.501 176.155Z" fill="#283891"/>
<path d="M116.501 13.412C59.5671 13.412 13.4131 59.5661 13.4131 116.5C13.4131 173.434 59.5671 219.588 116.501 219.588C173.435 219.588 219.589 173.434 219.589 116.5C219.589 59.5661 173.435 13.412 116.501 13.412ZM116.501 183.777C79.3451 183.777 49.2243 153.656 49.2243 116.5C49.2243 79.3441 79.3451 49.2232 116.501 49.2232C153.657 49.2232 183.778 79.3441 183.778 116.5C183.778 153.656 153.657 183.777 116.501 183.777Z" fill="white"/>
<path d="M116.497 4.16116C54.454 4.16116 4.1582 54.457 4.1582 116.5C4.1582 178.543 54.454 228.839 116.497 228.839C178.54 228.839 228.836 178.543 228.836 116.5C228.836 54.457 178.54 4.16116 116.497 4.16116ZM116.497 225.556C56.2673 225.556 7.44151 176.73 7.44151 116.5C7.44151 56.2703 56.2673 7.44447 116.497 7.44447C176.727 7.44447 225.553 56.2703 225.553 116.5C225.553 176.73 176.727 225.556 116.497 225.556Z" fill="#283891"/>
<path d="M68.3844 69.4882L67.9642 69.592V116.149C67.9642 116.169 67.9636 116.189 67.962 116.208C67.9588 116.253 67.6778 120.827 69.0625 127.419L69.1548 127.858H163.854L163.946 127.42C165.348 120.758 165.044 116.253 165.041 116.209C165.039 116.189 165.039 116.169 165.039 116.149V69.592L164.619 69.4882C164.166 69.3767 163.666 69.2685 163.13 69.1631H69.8729C69.3365 69.2685 68.8365 69.3767 68.3844 69.4882Z" fill="#BDBEC0"/>
<path d="M170.012 116.021V68.9717C170.012 67.1402 168.835 65.5478 167.085 65.0092C157.161 61.9556 120.719 61.0227 116.6 60.9265L116.499 60.9253L116.402 60.9265C112.279 61.0227 75.8372 61.9556 65.9131 65.0092C64.1626 65.5478 62.9866 67.1402 62.9866 68.9717V116.021C62.8972 117.61 62.5499 128.347 68.3791 141.282C71.9714 149.254 77.1817 156.413 83.8649 162.56C92.1226 170.154 102.646 176.196 115.146 180.516C115.582 180.667 116.038 180.743 116.499 180.743C116.96 180.743 117.416 180.667 117.854 180.516C130.352 176.196 140.876 170.154 149.133 162.56C155.816 156.413 161.027 149.254 164.619 141.282C170.448 128.347 170.101 117.61 170.012 116.021ZM71.2677 116.45C71.275 116.35 71.2785 116.25 71.2785 116.149V72.2729C81.2542 70.4979 104.657 69.5078 116.499 69.2184C128.341 69.5078 151.744 70.4979 161.72 72.2729V116.149C161.72 116.25 161.723 116.35 161.729 116.435C161.734 116.506 162.025 121.682 160.172 128.964H72.8295C70.9821 121.693 71.2644 116.506 71.2677 116.45Z" fill="#262262"/>
<path d="M167.25 116.103V68.9718C167.25 68.3652 166.854 67.8294 166.274 67.651C156.545 64.6573 118.162 63.7278 116.533 63.6898C116.512 63.6892 116.49 63.6892 116.469 63.6898C114.84 63.7278 76.4577 64.6573 66.7281 67.651C66.1483 67.8294 65.7526 68.3652 65.7526 68.9718V116.103C65.6935 117.035 65.1836 127.459 70.9011 140.147C74.3393 147.777 79.3312 154.633 85.738 160.526C93.7144 167.862 103.913 173.708 116.05 177.904C116.196 177.954 116.349 177.98 116.501 177.98C116.654 177.98 116.806 177.954 116.953 177.904C129.09 173.708 139.288 167.862 147.264 160.526C153.671 154.633 158.663 147.777 162.101 140.147C167.819 127.459 167.309 117.035 167.25 116.103ZM68.5131 116.249C68.5155 116.216 68.5166 116.183 68.5166 116.15V70.0252C79.2111 67.3858 115.218 66.4849 116.501 66.4537C117.785 66.4849 153.791 67.3858 164.486 70.0252V116.15C164.486 116.183 164.487 116.216 164.489 116.249C164.494 116.316 164.782 120.76 163.405 127.306H69.6031C68.2301 120.77 68.5083 116.315 68.5131 116.249ZM159.581 139.011C154.44 150.419 142.795 165.916 116.501 175.134C90.2797 165.941 78.6343 150.504 73.4796 139.141C72.0902 136.078 71.0849 133.139 70.357 130.446H162.648C161.93 133.098 160.942 135.991 159.581 139.011Z" fill="#FDC65A"/>
<path d="M95.4456 143.86L93.8731 139.567L92.3006 143.86L87.7793 143.994L91.3287 146.851L90.1069 151.158L93.8731 148.7L97.6392 151.158L96.4174 146.851L99.9668 143.994L95.4456 143.86Z" fill="white"/>
<path d="M118.87 143.86L117.298 139.567L115.725 143.86L111.204 143.994L114.754 146.851L113.532 151.158L117.298 148.7L121.064 151.158L119.842 146.851L123.392 143.994L118.87 143.86Z" fill="white"/>
<path d="M146.816 143.994L142.295 143.86L140.723 139.567L139.15 143.86L134.629 143.994L138.178 146.851L136.957 151.158L140.723 148.7L144.489 151.158L143.267 146.851L146.816 143.994Z" fill="white"/>
<path d="M28.4417 123.149C28.8871 122.338 29.292 121.481 29.6572 120.575C30.0218 119.67 30.2046 118.678 30.2046 117.597C30.2046 117.145 30.1681 116.699 30.0953 116.261C30.0218 115.823 29.8872 115.44 29.6901 115.112C29.4931 114.783 29.2191 114.517 28.8687 114.312C28.5184 114.108 28.0657 114.006 27.511 114.006C26.3285 114.006 25.4707 114.254 24.9379 114.75C24.4048 115.247 24.1387 116.101 24.1387 117.312V119.765H26.46V117.028C26.46 116.677 26.518 116.396 26.6352 116.185C26.7518 115.973 26.9561 115.867 27.2484 115.867C27.4816 115.867 27.646 115.955 27.741 116.13C27.8358 116.305 27.8833 116.604 27.8833 117.028V118.473C27.8833 118.926 27.792 119.389 27.6096 119.864C27.4268 120.338 27.1969 120.831 26.9199 121.342C26.6422 121.853 26.3396 122.386 26.0111 122.941C25.6826 123.496 25.3792 124.079 25.1023 124.692C24.8245 125.306 24.5948 125.952 24.4124 126.63C24.2296 127.31 24.1387 128.029 24.1387 128.788V129.773H30.1171V127.912H26.6789C26.6789 127.094 26.8614 126.299 27.2263 125.525C27.5912 124.751 27.9964 123.959 28.4417 123.149Z" fill="#262262"/>
<path d="M37.2481 114.674C36.9925 114.433 36.6751 114.261 36.2956 114.159C35.9158 114.057 35.4853 114.006 35.0035 114.006C34.5217 114.006 34.0946 114.057 33.7224 114.159C33.3499 114.261 33.0325 114.433 32.7696 114.674C32.507 114.914 32.3099 115.236 32.1785 115.637C32.047 116.039 31.9814 116.539 31.9814 117.137V126.926C31.9814 127.963 32.2587 128.726 32.8136 129.215C33.3683 129.704 34.0617 129.948 34.8939 129.948C35.9304 129.948 36.715 129.708 37.2481 129.226C37.781 128.744 38.0474 127.977 38.0474 126.926V117.137C38.0474 116.539 37.978 116.039 37.8395 115.637C37.7005 115.236 37.5035 114.914 37.2481 114.674ZM35.726 126.926C35.726 127.043 35.7185 127.167 35.7042 127.299C35.6896 127.43 35.6605 127.554 35.6167 127.671C35.5727 127.788 35.5071 127.886 35.4197 127.967C35.332 128.047 35.2078 128.087 35.0472 128.087C34.872 128.087 34.7333 128.051 34.6313 127.977C34.529 127.905 34.4561 127.806 34.4121 127.682C34.3683 127.558 34.3389 127.423 34.3246 127.277C34.3098 127.131 34.3028 126.985 34.3028 126.839V116.853C34.3028 116.546 34.3683 116.305 34.4998 116.13C34.6313 115.955 34.7846 115.867 34.9597 115.867C35.193 115.867 35.3792 115.955 35.5182 116.13C35.6567 116.305 35.726 116.546 35.726 116.853V126.926V126.926Z" fill="#262262"/>
<path d="M197.081 115.068C196.979 115.309 196.833 115.506 196.644 115.659C196.453 115.813 196.231 115.933 195.975 116.021C195.72 116.108 195.431 116.174 195.11 116.218V117.838H196.819V129.773H199.14V114.181H197.235C197.235 114.531 197.183 114.827 197.081 115.068Z" fill="#262262"/>
<path d="M205.031 113.874C204.374 113.874 203.844 113.958 203.443 114.126C203.041 114.294 202.731 114.52 202.512 114.805C202.293 115.09 202.147 115.415 202.074 115.78C202.001 116.145 201.965 116.532 201.965 116.94V122.043C201.965 122.568 202.027 122.995 202.151 123.324C202.275 123.652 202.436 123.904 202.633 124.08C202.83 124.255 203.045 124.372 203.279 124.43C203.512 124.488 203.746 124.517 203.98 124.517C204.3 124.517 204.618 124.448 204.932 124.309C205.246 124.171 205.505 123.992 205.709 123.773V126.97C205.709 127.248 205.669 127.481 205.589 127.671C205.509 127.861 205.308 127.956 204.987 127.956C204.666 127.956 204.468 127.861 204.395 127.671C204.322 127.481 204.286 127.248 204.286 126.97V125.043H201.965V126.598C201.965 127.62 202.187 128.412 202.633 128.974C203.078 129.536 203.855 129.817 204.965 129.817C206.06 129.817 206.844 129.536 207.319 128.974C207.794 128.412 208.031 127.649 208.031 126.685V116.765C208.031 115.816 207.782 115.097 207.286 114.608C206.79 114.119 206.038 113.874 205.031 113.874ZM205.709 121.495C205.709 121.729 205.666 121.941 205.578 122.13C205.491 122.32 205.308 122.415 205.031 122.415C204.724 122.415 204.523 122.331 204.428 122.163C204.333 121.995 204.286 121.773 204.286 121.495V116.743C204.286 116.627 204.289 116.51 204.297 116.393C204.304 116.276 204.33 116.167 204.374 116.064C204.418 115.962 204.483 115.882 204.571 115.823C204.658 115.765 204.782 115.736 204.943 115.736C205.279 115.736 205.491 115.845 205.578 116.064C205.666 116.283 205.709 116.517 205.709 116.765V121.495V121.495Z" fill="#262262"/>
<path d="M47.2969 92.5353C48.2511 90.0105 48.8527 88.1599 49.1005 86.9839C49.3488 85.8086 49.4144 84.7651 49.2965 83.855C49.1529 82.7388 48.7261 81.7609 48.016 80.9209C47.3061 80.0817 46.3603 79.4385 45.1789 78.9918C43.5329 78.3696 42.0491 78.3173 40.7284 78.8336C39.4077 79.3503 38.3893 80.373 37.6727 81.9029C37.8195 80.3541 37.6427 79.1189 37.1428 78.1969C36.6429 77.2748 35.7619 76.5755 34.4995 76.0983C33.4994 75.7201 32.5372 75.6022 31.6124 75.7428C30.6879 75.884 29.8436 76.2778 29.08 76.924C28.4149 77.4924 27.8136 78.2433 27.2759 79.177C26.7385 80.1104 25.9962 81.8297 25.0498 84.3343L22.7539 90.4094L44.9321 98.7918L47.2969 92.5353ZM34.1926 86.9415L33.7345 88.1534L29.2657 86.4645L29.7578 85.1616C30.3268 83.6568 30.8785 82.7083 31.4135 82.3159C31.9485 81.9237 32.6349 81.8859 33.4732 82.2028C34.2814 82.5083 34.7443 83.0009 34.8625 83.6803C34.981 84.36 34.7575 85.4469 34.1926 86.9415ZM43.3229 89.3538L42.5212 91.4748L37.6886 89.648L38.5242 87.436C39.0816 85.962 39.6479 85.0216 40.2226 84.6153C40.7975 84.2094 41.5492 84.1818 42.4783 84.533C43.3169 84.8499 43.8028 85.3743 43.9359 86.1053C44.0692 86.8368 43.8649 87.9197 43.3229 89.3538Z" fill="#262262"/>
<path d="M56.5052 74.528L49.0583 68.9914L59.752 70.1615L64.1104 64.3002L52.5865 63.7844C53.3142 62.1727 53.4853 60.6619 53.1007 59.2524C52.7157 57.8432 51.7872 56.5905 50.3143 55.4951C49.3439 54.7739 48.3187 54.2975 47.2393 54.0665C46.1594 53.8359 45.1054 53.8694 44.077 54.1671C43.1665 54.4325 42.303 54.9102 41.4865 55.6015C40.6698 56.293 39.4721 57.6998 37.8942 59.8222L33.8643 65.2419L52.8912 79.389L56.5052 74.528ZM47.187 66.1065L46.472 67.068L41.4684 63.3479L42.2415 62.3079C43.0855 61.1732 43.8875 60.5148 44.6481 60.3335C45.4082 60.1521 46.2652 60.416 47.2183 61.1246C48.0329 61.7303 48.4389 62.4326 48.437 63.2316C48.4348 64.0305 48.0181 64.9888 47.187 66.1065Z" fill="#262262"/>
<path d="M54.905 41.6307L50.0078 45.9455L65.6819 63.7352L70.5791 59.4204L54.905 41.6307Z" fill="#262262"/>
<path d="M77.7084 54.2125L78.6679 53.705C81.3974 52.2623 83.3319 51.0471 84.4712 50.06C85.6103 49.0729 86.4988 47.959 87.1372 46.7173C87.9745 45.0908 88.3545 43.3719 88.2771 41.5624C88.1999 39.7531 87.6719 37.9228 86.6929 36.0709C85.7142 34.2192 84.4985 32.7522 83.0466 31.6693C81.5949 30.5866 79.9606 29.9332 78.1448 29.7089C76.7447 29.5329 75.2891 29.6492 73.7767 30.0579C72.2649 30.4665 69.8812 31.5314 66.6265 33.2518L62.2598 35.5607L73.3416 56.5211L77.7084 54.2125ZM71.3499 36.7451C73.5924 35.5596 75.4769 35.1618 77.0023 35.5521C78.5278 35.9427 79.8199 37.1398 80.8799 39.1445C81.9399 41.1483 82.1977 42.8839 81.6538 44.3499C81.1099 45.8163 79.716 47.1422 77.4735 48.3277L76.5142 48.8351L70.3903 37.2526L71.3499 36.7451Z" fill="#262262"/>
<path d="M116.375 30.098C116.32 29.7241 116.276 29.4412 116.242 29.2499C116.208 29.0585 116.174 28.8833 116.14 28.7249L103.578 30.5736L104.302 35.4926L110.663 34.5562C110.676 35.9077 110.2 37.0611 109.233 38.0161C108.266 38.9716 106.97 39.5686 105.347 39.8078C103.435 40.0888 101.834 39.6699 100.545 38.55C99.2563 37.4301 98.4479 35.7539 98.1191 33.5211C97.7938 31.3102 98.087 29.4855 98.9998 28.0471C99.9116 26.609 101.324 25.749 103.236 25.4675C104.262 25.3166 105.221 25.4019 106.114 25.7234C107.007 26.0451 107.851 26.6109 108.647 27.4209L113.8 23.9454C112.328 22.3286 110.642 21.1963 108.741 20.5485C106.839 19.9009 104.74 19.7457 102.444 20.0837C100.681 20.3433 99.0824 20.8788 97.6467 21.6902C96.2108 22.5019 94.9896 23.5654 93.9828 24.8812C92.9701 26.2308 92.2729 27.6838 91.891 29.2407C91.5088 30.7976 91.4469 32.4519 91.7047 34.2034C91.9514 35.8805 92.4945 37.4403 93.3342 38.8831C94.1739 40.3252 95.2318 41.5253 96.5079 42.4835C97.8451 43.4873 99.2957 44.1662 100.859 44.5195C102.422 44.8731 104.155 44.9104 106.057 44.6305C109.923 44.0615 112.758 42.5062 114.562 39.9657C116.365 37.4249 116.969 34.1357 116.375 30.098Z" fill="#262262"/>
<path d="M135.727 39.9968L127.59 38.7845L128.18 34.8278L135.852 35.9709L136.602 30.9409L128.929 29.7981L129.535 25.7296L137.672 26.9413L138.438 21.7996L124.07 19.6594L120.576 43.1103L134.945 45.2507L135.727 39.9968Z" fill="#262262"/>
<path d="M160.201 38.5193C160.72 37.2969 160.98 36.0965 160.983 34.9186C160.984 33.7401 160.725 32.6478 160.203 31.6399C159.762 30.7721 159.101 30.0098 158.218 29.3537C157.336 28.6969 155.677 27.8513 153.243 26.8172L147.027 24.1761L137.755 45.9975L143.33 48.366L146.389 41.1667L147.462 41.6229L148.475 42.0534C150.313 42.8346 151.694 43.2983 152.618 43.444C153.541 43.5903 154.412 43.5558 155.231 43.3404C156.316 43.051 157.277 42.5001 158.115 41.6887C158.952 40.8774 159.648 39.8212 160.201 38.5193ZM154.508 35.8892C154.107 36.8334 153.54 37.3811 152.807 37.5331C152.074 37.685 150.991 37.4569 149.561 36.8488L148.428 36.3673L150.607 31.2401L151.799 31.7468C153.21 32.346 154.111 32.9579 154.503 33.582C154.895 34.2057 154.896 34.975 154.508 35.8892Z" fill="#262262"/>
<path d="M159.682 53.0813C159.806 54.7329 160.246 56.3055 161.002 57.7984C161.757 59.2908 162.775 60.5931 164.055 61.7041C165.319 62.8014 166.745 63.6214 168.333 64.1636C169.921 64.7062 171.554 64.9334 173.231 64.846C174.908 64.7434 176.471 64.3342 177.921 63.62C179.37 62.9053 180.654 61.9044 181.773 60.6161C182.884 59.3364 183.693 57.9225 184.201 56.3754C184.707 54.8279 184.895 53.2249 184.763 51.5657C184.63 49.9065 184.182 48.3269 183.418 46.8275C182.654 45.3273 181.637 44.0255 180.365 42.9209C179.085 41.8097 177.653 40.9845 176.069 40.446C174.485 39.907 172.866 39.6919 171.214 39.8007C169.52 39.8895 167.945 40.2917 166.488 41.0061C165.031 41.7214 163.746 42.7188 162.635 43.9987C161.531 45.2706 160.725 46.6804 160.218 48.2273C159.711 49.7747 159.532 51.3926 159.682 53.0813ZM167.526 48.2459C168.836 46.7379 170.367 45.8685 172.119 45.638C173.87 45.4072 175.422 45.8795 176.776 47.0545C178.105 48.2079 178.782 49.6757 178.809 51.4574C178.834 53.2386 178.196 54.8795 176.894 56.3794C175.577 57.8958 174.044 58.7671 172.296 58.9939C170.548 59.2203 168.997 58.7461 167.644 57.5711C166.267 56.3748 165.57 54.9046 165.554 53.1609C165.538 51.4169 166.196 49.7788 167.526 48.2459Z" fill="#262262"/>
<path d="M178.171 77.0262L186.118 72.2359L180.98 81.6869L184.751 87.942L189.598 77.4753C190.813 78.7599 192.147 79.4911 193.597 79.6698C195.047 79.8482 196.558 79.4641 198.13 78.5164C199.166 77.8921 199.995 77.1242 200.618 76.2129C201.241 75.3011 201.61 74.3132 201.724 73.2484C201.824 72.3058 201.709 71.3255 201.379 70.3076C201.05 69.29 200.202 67.6486 198.837 65.3832L195.35 59.5993L175.044 71.8389L178.171 77.0262ZM194.219 67.3533L194.888 68.4627C195.618 69.6741 195.923 70.6661 195.802 71.4383C195.681 72.2111 195.112 72.9037 194.095 73.5167C193.226 74.0409 192.422 74.1502 191.684 73.8452C190.945 73.5402 190.216 72.7914 189.497 71.5984L188.879 70.5718L194.219 67.3533Z" fill="#262262"/>
<path d="M203.068 87.2624L185.719 92.443L187.567 98.6347L204.917 93.4541L206.437 98.5437L211.806 96.9407L206.917 80.5692L201.548 82.1723L203.068 87.2624Z" fill="#262262"/>
<path d="M65.6077 170.739L61.7263 165.957L54.3547 171.94L53.1506 172.917C51.8896 173.94 50.9581 174.643 50.3559 175.025C49.7537 175.407 49.2057 175.672 48.7126 175.82C48.1066 175.992 47.5007 175.947 46.8958 175.686C46.2909 175.424 45.7211 174.964 45.1869 174.306C44.6522 173.648 44.3178 172.994 44.1831 172.344C44.0484 171.694 44.131 171.094 44.4309 170.544C44.6765 170.092 45.0482 169.61 45.5462 169.099C46.0439 168.589 46.923 167.822 48.1838 166.799L56.76 159.838L52.8694 155.044L45.3772 161.125L43.5463 162.611C41.611 164.182 40.2798 165.458 39.5529 166.441C38.8254 167.424 38.3582 168.453 38.1512 169.527C37.9317 170.718 38.0686 171.982 38.562 173.32C39.0554 174.657 39.9143 176.081 41.1395 177.591C42.3581 179.093 43.5733 180.224 44.7845 180.986C45.9953 181.748 47.2027 182.14 48.406 182.162C49.5064 182.188 50.6104 181.945 51.7192 181.431C52.8275 180.918 54.3491 179.876 56.2847 178.305L65.6077 170.739Z" fill="#262262"/>
<path d="M80.7286 181.151L74.6185 190.557C74.3086 191.034 73.9771 191.596 73.6252 192.243C73.2729 192.889 72.8926 193.641 72.4839 194.498C72.6432 193.417 72.7603 192.473 72.8354 191.665C72.9104 190.856 72.9431 190.307 72.9342 190.018L72.1039 175.548L67.095 172.295L54.7227 191.34L59.7316 194.593L65.8415 185.188C66.1513 184.711 66.4825 184.149 66.8348 183.502C67.1868 182.856 67.5703 182.1 67.9844 181.234C67.8278 182.291 67.712 183.224 67.637 184.033C67.5619 184.841 67.5331 185.393 67.5514 185.688L68.3563 200.197L73.3388 203.433L85.7111 184.388L80.7286 181.151Z" fill="#262262"/>
<path d="M88.8466 184.903L81.2393 206.302L87.1298 208.396L94.7371 186.997L88.8466 184.903Z" fill="#262262"/>
<path d="M95.3623 193.142L100.382 193.974L97.5435 211.084L103.65 212.097L106.488 194.987L111.508 195.82L112.386 190.525L96.2409 187.847L95.3623 193.142Z" fill="#262262"/>
<path d="M120.517 207.723L120.329 203.896L127.75 203.531L127.511 198.666L120.089 199.031L119.896 195.096L127.767 194.709L127.522 189.735L113.624 190.418L114.739 213.102L128.638 212.419L128.388 207.336L120.517 207.723Z" fill="#262262"/>
<path d="M149.746 189.591C148.563 188.323 147.135 187.427 145.461 186.905C144.172 186.501 142.78 186.362 141.285 186.488C139.79 186.615 137.361 187.211 134 188.276L129.489 189.706L136.351 211.355L140.862 209.926L141.853 209.612C144.672 208.718 146.703 207.904 147.945 207.168C149.187 206.433 150.216 205.535 151.03 204.473C152.097 203.083 152.749 201.528 152.985 199.81C153.222 198.091 153.037 196.276 152.431 194.363C151.824 192.451 150.93 190.86 149.746 189.591ZM146.266 201.305C145.503 202.594 143.963 203.605 141.646 204.34L140.656 204.654L136.863 192.69L137.854 192.376C140.171 191.642 142.015 191.589 143.386 192.218C144.757 192.846 145.77 194.196 146.427 196.266C147.083 198.336 147.029 200.016 146.266 201.305Z" fill="#262262"/>
<path d="M174.091 176.153L168.318 180.831L165.837 177.769L171.96 172.808L168.825 168.939L158.014 177.7L172.312 195.345L177.001 191.546L171.385 184.615L177.158 179.937L174.091 176.153Z" fill="#262262"/>
<path d="M191.948 167.52C191.774 168.454 191.389 169.3 190.795 170.057C189.723 171.423 188.369 172.178 186.732 172.32C185.096 172.463 183.561 171.972 182.129 170.848C180.592 169.641 179.685 168.23 179.409 166.613C179.133 164.996 179.544 163.488 180.642 162.089C181.236 161.332 181.965 160.758 182.831 160.366C183.698 159.975 184.763 159.736 186.027 159.649L180.706 155.474C179.725 155.953 178.841 156.502 178.054 157.12C177.266 157.738 176.566 158.437 175.953 159.218C174.932 160.52 174.22 161.871 173.818 163.271C173.416 164.671 173.318 166.136 173.525 167.665C173.734 169.275 174.224 170.741 174.994 172.062C175.765 173.384 176.834 174.58 178.201 175.653C179.901 176.987 181.705 177.838 183.613 178.204C185.521 178.571 187.446 178.438 189.388 177.806C190.402 177.485 191.35 177.002 192.23 176.358C193.109 175.714 193.933 174.904 194.699 173.928C195.312 173.147 195.824 172.301 196.238 171.389C196.651 170.477 196.973 169.488 197.206 168.421L191.872 164.236C192.098 165.491 192.123 166.586 191.948 167.52Z" fill="#262262"/>
<path d="M111.112 80.7364L111.196 81.6214H106.94V82.5063H102.6V83.7705L86.2501 83.8126L87.0929 85.0346L86.9665 88.0265L86.4187 88.5322H86.142L86.1413 88.5322H85.7866L83.9746 89.08L83.9778 89.0841H83.9778L86.3765 92.1561L85.9551 103.684L85.9412 103.69L85.8942 103.712L85.0281 104.11L85.0288 104.113L85.0293 104.114H85.0293L85.6602 105.865L85.0281 123.227L84.1853 123.845V125.446H94.8886L94.9729 123.845L94.4672 123.227L94.9308 105.865L95.5207 104.113H94.994C94.994 104.113 94.9308 95.9065 103.232 95.9065C111.534 95.9065 111.829 104.113 111.829 104.113H111.154L111.786 105.865L111.576 123.227L110.944 123.845V125.446H118.571V80.7364H111.112Z" fill="url(#paint0_linear)"/>
<path d="M123.277 80.7365L123.193 81.6214H127.443V82.5063H131.776V83.7705L148.101 83.8126L147.26 85.0346L147.386 88.0265L147.933 88.5322H148.209L148.21 88.5322H148.564L150.373 89.08L150.37 89.0841H150.37L147.975 92.1562L148.396 103.684L148.41 103.69L148.457 103.712L149.321 104.111L149.321 104.113L149.32 104.114H149.32L148.69 105.865L149.321 123.227L150.163 123.845V125.446H139.476L139.392 123.845L139.897 123.227L139.434 105.865L138.845 104.113H139.371C139.371 104.113 139.434 95.9065 131.145 95.9065C122.857 95.9065 122.562 104.113 122.562 104.113L122.604 105.865L122.814 123.227L123.446 123.845V125.446H115.83V80.7365H123.277Z" fill="url(#paint1_linear)"/>
<g opacity="0.3">
<path opacity="0.3" d="M110.827 94.2476L104.943 96.0395C105.167 96.0746 105.384 96.1163 105.594 96.1646L110.917 94.5434L110.827 94.2476Z" fill="#BDBEC0"/>
<path opacity="0.3" d="M110.824 93.1651L101.213 96.0924C101.714 95.9955 102.259 95.9376 102.845 95.9187L110.914 93.4609L110.824 93.1651Z" fill="#BDBEC0"/>
<path opacity="0.3" d="M110.827 96.4124L108.141 97.2307C108.251 97.3036 108.359 97.3785 108.463 97.4556L110.917 96.7082L110.827 96.4124Z" fill="#BDBEC0"/>
<path opacity="0.3" d="M110.824 95.3298L106.822 96.5486C106.972 96.6088 107.118 96.6717 107.259 96.7388L110.914 95.6257L110.824 95.3298Z" fill="#BDBEC0"/>
<path opacity="0.3" d="M110.825 91L86.1448 98.517L86.1328 98.8439L110.915 91.2959L110.825 91Z" fill="#BDBEC0"/>
<path opacity="0.3" d="M110.827 88.8352L86.2268 96.3278L86.2148 96.6547L110.917 89.131L110.827 88.8352Z" fill="#BDBEC0"/>
<path opacity="0.3" d="M110.828 89.9175L86.1877 97.4223L86.1758 97.7492L110.918 90.2133L110.828 89.9175Z" fill="#BDBEC0"/>
<path opacity="0.3" d="M110.825 92.0825L86.1047 99.6117L86.0928 99.9386L110.915 92.3784L110.825 92.0825Z" fill="#BDBEC0"/>
<path opacity="0.3" d="M110.828 97.4947L109.126 98.013C109.212 98.0942 109.296 98.1763 109.376 98.2601L110.918 97.7905L110.828 97.4947Z" fill="#BDBEC0"/>
<path opacity="0.3" d="M110.826 87.7527L86.2659 95.2331L86.2539 95.5601L110.916 88.0485L110.826 87.7527Z" fill="#BDBEC0"/>
<path opacity="0.3" d="M97.0273 98.4504L86.0266 101.801L86.0146 102.128L96.6887 98.8768C96.7942 98.7322 96.9081 98.5902 97.0273 98.4504Z" fill="#BDBEC0"/>
<path opacity="0.3" d="M99.5417 96.6019L86.0657 100.706L86.0537 101.033L98.2742 97.3113C98.6516 97.0439 99.0723 96.8045 99.5417 96.6019Z" fill="#BDBEC0"/>
<path opacity="0.3" d="M110.918 85.8837L110.828 85.5878L86.3479 93.0439L86.3359 93.3709L110.918 85.8837Z" fill="#BDBEC0"/>
<path opacity="0.3" d="M96.1081 99.8132L85.9875 102.896L85.9756 103.223L95.9172 100.195C95.9768 100.067 96.0405 99.9404 96.1081 99.8132Z" fill="#BDBEC0"/>
<path opacity="0.3" d="M95.5613 101.061L85.0811 104.254L85.186 104.545L95.4436 101.421C95.4798 101.302 95.519 101.183 95.5613 101.061Z" fill="#BDBEC0"/>
<path opacity="0.3" d="M95.4429 104.345L85.6066 107.341L85.5947 107.667L95.3216 104.705L95.4429 104.345Z" fill="#BDBEC0"/>
<path opacity="0.3" d="M110.824 98.5774L109.895 98.8604C109.962 98.9476 110.025 99.0362 110.088 99.1248L110.914 98.8733L110.824 98.5774Z" fill="#BDBEC0"/>
<path opacity="0.3" d="M85.6457 106.246L85.6338 106.573L95.0101 103.717C95.0168 103.621 95.0261 103.51 95.0394 103.385L85.6457 106.246Z" fill="#BDBEC0"/>
<path opacity="0.3" d="M95.2278 102.246L85.4336 105.229L85.5385 105.52L95.1587 102.59C95.1791 102.479 95.2019 102.365 95.2278 102.246Z" fill="#BDBEC0"/>
<path opacity="0.3" d="M85.3674 113.908L85.3555 114.235L94.784 111.363L94.7927 111.037L85.3674 113.908Z" fill="#BDBEC0"/>
<path opacity="0.3" d="M85.3283 115.003L85.3164 115.329L94.7556 112.454L94.7643 112.129L85.3283 115.003Z" fill="#BDBEC0"/>
<path opacity="0.3" d="M85.4494 111.719L85.4375 112.046L94.8446 109.181L94.8533 108.855L85.4494 111.719Z" fill="#BDBEC0"/>
<path opacity="0.3" d="M85.4064 112.814L85.3945 113.14L94.8123 110.272L94.821 109.946L85.4064 112.814Z" fill="#BDBEC0"/>
<path opacity="0.3" d="M85.2893 116.097L85.2773 116.424L94.7273 113.546L94.736 113.22L85.2893 116.097Z" fill="#BDBEC0"/>
<path opacity="0.3" d="M85.2502 117.192L85.2383 117.519L94.6989 114.637L94.7076 114.311L85.2502 117.192Z" fill="#BDBEC0"/>
<path opacity="0.3" d="M85.4894 110.624L85.4775 110.951L94.8739 108.089L94.8826 107.763L85.4894 110.624Z" fill="#BDBEC0"/>
<path opacity="0.3" d="M110.824 99.6597L110.499 99.7587C110.553 99.8505 110.606 99.9423 110.656 100.034L110.914 99.9556L110.824 99.6597Z" fill="#BDBEC0"/>
<path opacity="0.3" d="M95.0377 105.551L85.5676 108.435L85.5557 108.762L94.9307 105.907L94.9317 105.865L95.0377 105.551Z" fill="#BDBEC0"/>
<path opacity="0.3" d="M85.5285 109.53L85.5166 109.857L94.9022 106.998L94.911 106.672L85.5285 109.53Z" fill="#BDBEC0"/>
<path opacity="0.3" d="M94.4733 123.042L86.5801 125.446H87.6415L94.5601 123.339L94.4684 123.227L94.4733 123.042Z" fill="#BDBEC0"/>
<path opacity="0.3" d="M84.1865 124.01V124.334L94.523 121.185L94.5317 120.859L84.1865 124.01Z" fill="#BDBEC0"/>
<path opacity="0.3" d="M110.825 86.6704L86.3049 94.1386L86.293 94.4656L110.915 86.9662L110.825 86.6704Z" fill="#BDBEC0"/>
<path opacity="0.3" d="M84.1865 125.093V125.416L94.4938 122.277L94.5026 121.951L84.1865 125.093Z" fill="#BDBEC0"/>
<path opacity="0.3" d="M94.9669 123.974L90.1338 125.446H91.1953L94.9497 124.303L94.9669 123.974Z" fill="#BDBEC0"/>
<path opacity="0.3" d="M85.0539 122.665L85.042 122.992L94.5562 120.094L94.5649 119.768L85.0539 122.665Z" fill="#BDBEC0"/>
<path opacity="0.3" d="M85.132 120.476L85.1201 120.803L94.6129 117.911L94.6216 117.585L85.132 120.476Z" fill="#BDBEC0"/>
<path opacity="0.3" d="M85.1711 119.381L85.1592 119.708L94.6413 116.82L94.65 116.494L85.1711 119.381Z" fill="#BDBEC0"/>
<path opacity="0.3" d="M85.093 121.57L85.0811 121.897L94.5846 119.003L94.5933 118.677L85.093 121.57Z" fill="#BDBEC0"/>
<path opacity="0.3" d="M85.2102 118.286L85.1982 118.613L94.6696 115.729L94.6783 115.403L85.2102 118.286Z" fill="#BDBEC0"/>
</g>
<g opacity="0.3">
<path opacity="0.3" d="M139.526 109.181L148.919 112.046L148.907 111.719L139.518 108.855L139.526 109.181Z" fill="#BDBEC0"/>
<path opacity="0.3" d="M139.586 111.363L149 114.235L148.988 113.908L139.577 111.037L139.586 111.363Z" fill="#BDBEC0"/>
<path opacity="0.3" d="M139.555 110.272L148.958 113.14L148.946 112.814L139.546 109.946L139.555 110.272Z" fill="#BDBEC0"/>
<path opacity="0.3" d="M139.613 112.455L149.038 115.329L149.026 115.003L139.604 112.129L139.613 112.455Z" fill="#BDBEC0"/>
<path opacity="0.3" d="M139.495 108.089L148.877 110.951L148.865 110.624L139.486 107.763L139.495 108.089Z" fill="#BDBEC0"/>
<path opacity="0.3" d="M139.047 104.705L148.759 107.667L148.747 107.341L138.926 104.345L139.047 104.705Z" fill="#BDBEC0"/>
<path opacity="0.3" d="M139.436 105.865L139.437 105.907L148.798 108.762L148.786 108.435L139.33 105.551L139.436 105.865Z" fill="#BDBEC0"/>
<path opacity="0.3" d="M139.468 106.998L148.839 109.857L148.827 109.53L139.459 106.672L139.468 106.998Z" fill="#BDBEC0"/>
<path opacity="0.3" d="M139.644 113.546L149.08 116.424L149.068 116.097L139.636 113.22L139.644 113.546Z" fill="#BDBEC0"/>
<path opacity="0.3" d="M139.79 119.003L149.279 121.897L149.267 121.57L139.781 118.677L139.79 119.003Z" fill="#BDBEC0"/>
<path opacity="0.3" d="M139.876 122.277L150.167 125.416V125.093L139.867 121.951L139.876 122.277Z" fill="#BDBEC0"/>
<path opacity="0.3" d="M139.817 120.094L149.317 122.992L149.305 122.665L139.809 119.768L139.817 120.094Z" fill="#BDBEC0"/>
<path opacity="0.3" d="M139.845 121.185L150.165 124.334V124.01L139.836 120.859L139.845 121.185Z" fill="#BDBEC0"/>
<path opacity="0.3" d="M139.9 123.227L139.809 123.339L146.717 125.446H147.776L139.895 123.042L139.9 123.227Z" fill="#BDBEC0"/>
<path opacity="0.3" d="M139.758 117.911L149.236 120.803L149.224 120.476L139.749 117.585L139.758 117.911Z" fill="#BDBEC0"/>
<path opacity="0.3" d="M123.57 93.1651L123.48 93.4609L131.538 95.9187C132.122 95.9376 132.666 95.9955 133.167 96.0924L123.57 93.1651Z" fill="#BDBEC0"/>
<path opacity="0.3" d="M139.699 115.729L149.156 118.613L149.144 118.286L139.69 115.403L139.699 115.729Z" fill="#BDBEC0"/>
<path opacity="0.3" d="M139.726 116.82L149.194 119.708L149.182 119.381L139.718 116.494L139.726 116.82Z" fill="#BDBEC0"/>
<path opacity="0.3" d="M139.672 114.637L149.118 117.519L149.106 117.192L139.663 114.311L139.672 114.637Z" fill="#BDBEC0"/>
<path opacity="0.3" d="M144.23 125.446L139.404 123.974L139.422 124.303L143.17 125.446H144.23Z" fill="#BDBEC0"/>
<path opacity="0.3" d="M123.48 91.2961L148.225 98.8442L148.213 98.5173L123.57 91.0003L123.48 91.2961Z" fill="#BDBEC0"/>
<path opacity="0.3" d="M128.795 96.1647C129.004 96.1163 129.221 96.0746 129.445 96.0395L123.57 94.2476L123.48 94.5435L128.795 96.1647Z" fill="#BDBEC0"/>
<path opacity="0.3" d="M123.48 92.3784L148.265 99.9387L148.253 99.6117L123.57 92.0826L123.48 92.3784Z" fill="#BDBEC0"/>
<path opacity="0.3" d="M123.48 89.1311L148.145 96.6548L148.133 96.3278L123.57 88.8352L123.48 89.1311Z" fill="#BDBEC0"/>
<path opacity="0.3" d="M123.48 86.9662L148.065 94.4656L148.053 94.1386L123.57 86.6704L123.48 86.9662Z" fill="#BDBEC0"/>
<path opacity="0.3" d="M123.48 85.8837L148.025 93.3709L148.013 93.0439L123.57 85.5879L123.48 85.8837Z" fill="#BDBEC0"/>
<path opacity="0.3" d="M123.48 88.0486L148.105 95.5601L148.093 95.2331L123.57 87.7527L123.48 88.0486Z" fill="#BDBEC0"/>
<path opacity="0.3" d="M123.135 99.5327L123.045 99.8286L123.736 100.034C123.786 99.9425 123.839 99.8507 123.893 99.7589L123.135 99.5327Z" fill="#BDBEC0"/>
<path opacity="0.3" d="M136.1 97.3113L148.301 101.033L148.289 100.706L134.834 96.6019C135.303 96.8045 135.723 97.0439 136.1 97.3113Z" fill="#BDBEC0"/>
<path opacity="0.3" d="M123.48 90.2136L148.185 97.7495L148.173 97.4225L123.57 89.9177L123.48 90.2136Z" fill="#BDBEC0"/>
<path opacity="0.3" d="M124.305 99.1248C124.368 99.0363 124.431 98.9477 124.498 98.8605L123.57 98.5775L123.48 98.8733L124.305 99.1248Z" fill="#BDBEC0"/>
<path opacity="0.3" d="M125.931 97.4557C126.035 97.3785 126.142 97.3036 126.253 97.2307L123.57 96.4124L123.48 96.7083L125.931 97.4557Z" fill="#BDBEC0"/>
<path opacity="0.3" d="M125.02 98.2604C125.1 98.1766 125.184 98.0945 125.27 98.0133L123.57 97.4949L123.48 97.7908L125.02 98.2604Z" fill="#BDBEC0"/>
<path opacity="0.3" d="M127.129 96.7388C127.27 96.6717 127.416 96.6088 127.566 96.5486L123.57 95.3299L123.48 95.6257L127.129 96.7388Z" fill="#BDBEC0"/>
<path opacity="0.3" d="M139.215 102.59L148.82 105.52L148.925 105.229L139.146 102.246C139.171 102.365 139.194 102.479 139.215 102.59Z" fill="#BDBEC0"/>
<path opacity="0.3" d="M138.925 101.421L149.167 104.545L149.272 104.254L138.808 101.062C138.85 101.183 138.889 101.303 138.925 101.421Z" fill="#BDBEC0"/>
<path opacity="0.3" d="M138.457 100.195L148.384 103.223L148.372 102.896L138.267 99.8132C138.334 99.9404 138.398 100.067 138.457 100.195Z" fill="#BDBEC0"/>
<path opacity="0.3" d="M137.687 98.8769L148.344 102.128L148.332 101.801L137.349 98.4505C137.468 98.5903 137.581 98.7322 137.687 98.8769Z" fill="#BDBEC0"/>
<path opacity="0.3" d="M139.359 103.717L148.721 106.573L148.709 106.246L139.33 103.385C139.343 103.51 139.353 103.621 139.359 103.717Z" fill="#BDBEC0"/>
</g>
<path d="M91.6177 125.446H79.9168V123.696L80.8382 123.02L81.5292 104.041L80.8382 102.122L81.8516 101.656L82.3123 89.0536L79.6865 85.6908L81.6674 85.0919H82.3584L82.9572 84.5391L83.0954 81.2684L82.1741 79.9325L100.048 79.8864V78.5044H104.793V77.537H109.445L109.353 76.5697H117.507V125.446H109.169V123.696L109.86 123.02L110.09 104.041L109.399 102.125H110.136C110.136 102.125 109.814 93.1535 100.739 93.1535C91.6638 93.1535 91.7329 102.125 91.7329 102.125H92.3087L91.6638 104.041L91.157 123.02L91.7098 123.696L91.6177 125.446Z" fill="#FDC65A"/>
<path d="M82.0551 85.0921H81.6674L79.6865 85.6909L79.69 85.6955H107.641L82.0551 85.0921Z" fill="white"/>
<path d="M80.8398 102.122L80.8411 102.126H91.7379L81.838 101.663L80.8398 102.122Z" fill="white"/>
<path d="M141.393 125.446H153.094V123.696L152.173 123.02L151.482 104.041L152.173 102.122L151.159 101.656L150.699 89.0536L153.324 85.6908L151.344 85.0919H150.653L150.054 84.5391L149.915 81.2684L150.837 79.9325L132.963 79.8864V78.5044H128.218V77.537H123.566L123.658 76.5696H115.504V125.446H123.842V123.696L123.151 123.02L122.921 104.041L123.612 102.125H122.875C122.875 102.125 123.197 93.1535 132.272 93.1535C141.347 93.1535 141.278 102.125 141.278 102.125H140.702L141.347 104.041L141.854 123.02L141.301 123.696L141.393 125.446Z" fill="#FDC65A"/>
<path d="M150.956 85.0921H151.344L153.325 85.6909L153.321 85.6954H125.37L150.956 85.0921Z" fill="white"/>
<path d="M152.173 102.122L152.171 102.126H141.274L151.174 101.663L152.173 102.122Z" fill="white"/>
<path d="M159.517 83.3028C157.247 80.5705 145.901 77.6176 145.796 77.5994C144.842 77.4339 140.266 77.5971 138.71 78.3962C138.159 78.6788 137.227 79.0368 136.008 79.4081C134.001 77.0454 131.456 77.2902 130.6 77.372L130.463 77.3847C129.743 77.4501 128.404 77.572 127.348 77.4214C125.918 77.217 122.295 72.6701 120.886 69.3127C119.436 65.8534 118.659 65.3048 116.188 63.9362C116.174 63.9286 116.16 63.9213 116.146 63.9144C112.112 61.8975 101.655 59.0907 96.0373 57.5828C94.4987 57.1698 93.0452 56.7796 92.8104 56.6904C91.8225 56.2951 91.2678 56.6831 91.0251 56.9498C90.5841 57.4349 90.5633 58.1635 90.9679 58.9489C91.0813 59.169 91.2653 59.3447 91.4905 59.4478C91.5382 59.4697 96.1436 61.5777 96.8578 61.9088C96.9437 62.0045 97.0797 62.2643 97.1553 62.4084C97.2943 62.6736 97.4255 62.9241 97.6298 63.1284C97.8565 63.3552 98.1513 63.5206 100.497 64.738C101.661 65.3415 103.109 66.0927 104.481 66.8413C104.544 66.8753 104.609 66.9031 104.677 66.9246C107.382 67.7819 108.129 69.0588 108.206 69.2016C108.319 69.5232 108.522 69.7737 108.847 69.8803C109.169 69.9859 109.467 69.9376 109.745 69.7516C109.842 69.718 110.222 69.6087 110.93 69.6674C111.575 69.7211 112.333 70.6267 112.86 71.9742C113.078 72.5315 113.262 73.1425 113.457 73.7892C113.796 74.9161 114.147 76.0815 114.727 77.0953C114.894 77.3875 115.09 77.643 115.264 77.8684C115.362 77.9955 115.46 78.1221 115.548 78.2531C115.617 78.3562 115.683 78.4608 115.748 78.5654C115.9 78.8071 116.058 79.0571 116.257 79.3107C116.69 79.861 117.17 80.3397 117.634 80.8028C117.778 80.9465 117.922 81.0901 118.064 81.2355C118.746 81.934 119.467 82.7735 119.639 83.7024C119.639 83.7056 119.64 83.709 119.64 83.7123L119.647 83.7484C119.778 84.5431 119.148 85.4408 118.777 85.887C118.594 86.0888 117.638 87.0182 117.256 87.3187C117.164 87.3512 117.074 87.3967 116.989 87.4555C116.561 87.7535 116.409 88.3004 116.592 88.7664C116.594 88.8301 116.591 88.9825 116.537 89.2513C116.46 89.6378 116.594 90.0362 116.889 90.297C117.154 90.5306 117.512 90.6221 117.852 90.5495C117.89 90.5699 117.956 90.612 118.046 90.6951C118.251 90.8842 118.518 90.987 118.795 90.987C118.821 90.987 118.847 90.9862 118.873 90.9843C119.177 90.9631 119.459 90.816 119.652 90.5802C119.744 90.5333 120.103 90.5546 120.316 90.567C120.825 90.597 121.458 90.6345 122.073 90.3377C122.615 90.0758 122.955 89.6744 123.228 89.3518C123.336 89.2255 123.437 89.1061 123.528 89.0225C123.79 88.7838 124.153 88.7191 124.411 88.7069C125.824 88.6395 127.615 87.6127 130.042 85.4763C130.748 85.0123 131.424 84.6851 132.052 84.5035C132.474 84.3815 132.928 84.3208 133.434 84.2593C135.047 84.0633 136.687 83.9182 138.311 83.8281C139.158 83.781 140.059 83.7429 140.937 83.8349C141.696 83.9144 142.445 84.096 143.238 84.2881C144.1 84.4971 144.992 84.7131 145.938 84.8023C147.061 84.9079 148.174 84.8624 149.247 84.6663C149.33 84.651 149.415 84.6331 149.501 84.6147C149.635 84.5861 149.837 84.5433 149.907 84.551C150.347 84.6138 151.395 84.9712 151.953 85.1818C152.279 85.3048 152.644 85.2671 152.938 85.0795C152.965 85.0624 152.991 85.0442 153.016 85.025L153.557 85.4202C153.81 85.6051 154.13 85.6739 154.437 85.6094L155.289 85.4302C155.674 85.684 156.323 86.093 157.229 86.5985C157.562 86.7845 157.967 86.7856 158.301 86.6018C158.635 86.4179 158.851 86.0751 158.872 85.6944C158.882 85.5152 158.856 85.3194 158.796 85.1073C159.19 85.0609 159.531 84.8054 159.686 84.437C159.845 84.057 159.78 83.6198 159.517 83.3028Z" fill="white"/>
<path d="M158.667 84.0094C156.801 81.7637 146.401 78.827 145.607 78.6888C144.812 78.5506 140.493 78.7233 139.215 79.3797C138.625 79.6827 137.701 80.0371 136.551 80.3955C136.632 80.536 136.717 80.6998 136.801 80.8925C136.089 81.2422 131.752 81.5909 131.752 81.5909C132.063 81.0727 133.411 80.4853 135.345 80.3471C133.618 78.1014 131.372 78.4124 130.612 78.4815C129.852 78.5506 128.401 78.6888 127.192 78.516C125.015 78.2051 121.215 72.9535 119.867 69.7404C118.52 66.5272 117.898 66.1472 115.652 64.9034C110.4 62.2776 93.4366 58.1316 92.4001 57.717C91.3636 57.3024 91.9509 58.4426 91.9509 58.4426C91.9509 58.4426 96.857 60.6883 97.3752 60.9302C97.8935 61.172 98.1699 62.1049 98.4117 62.3467C98.6536 62.5886 101.97 64.2124 105.011 65.8708C108.5 66.9764 109.226 68.773 109.226 68.773C109.226 68.773 109.779 68.462 111.022 68.5657C112.266 68.6693 113.268 69.9822 113.89 71.5715C114.512 73.1608 114.857 75.0956 115.687 76.5467C115.907 76.9315 116.221 77.2705 116.467 77.639C116.688 77.9685 116.879 78.3128 117.126 78.6271C117.647 79.289 118.268 79.862 118.855 80.4631C119.699 81.3269 120.507 82.3176 120.726 83.5018C120.73 83.5241 120.734 83.5464 120.738 83.5687C120.921 84.6814 120.295 85.7919 119.611 86.6131C119.489 86.7596 117.725 88.5075 117.621 88.3627C117.621 88.3627 117.794 88.6047 117.621 89.4683C117.932 89.3646 118.347 89.4683 118.796 89.8829C119.485 89.0406 120.744 89.7518 121.592 89.3422C122.105 89.0943 122.378 88.5759 122.783 88.2061C123.216 87.8107 123.779 87.6302 124.359 87.6026C125.81 87.5335 127.883 85.9097 129.368 84.5968C130.094 84.1127 130.902 83.6855 131.746 83.4416C132.252 83.2951 132.778 83.2255 133.301 83.1618C134.945 82.962 136.596 82.8161 138.25 82.7243C139.183 82.6725 140.122 82.638 141.053 82.7355C142.749 82.9133 144.341 83.5414 146.042 83.7017C147.051 83.7968 148.052 83.7609 149.048 83.5788C149.373 83.5194 149.73 83.409 150.064 83.4566C150.789 83.5603 152.344 84.1476 152.344 84.1476L152.413 83.2148L154.21 84.5277L155.522 84.2513C155.522 84.2513 156.283 84.8041 157.768 85.6333C157.803 85.0114 156.49 83.5257 156.49 83.5257C156.49 83.5257 157.837 84.0785 158.667 84.0094Z" fill="#262262"/>
<defs>
<linearGradient id="paint0_linear" x1="101.273" y1="124.364" x2="101.273" y2="90.7555" gradientUnits="userSpaceOnUse">
<stop stop-color="#B5B7B9"/>
<stop offset="1" stop-color="#747578"/>
</linearGradient>
<linearGradient id="paint1_linear" x1="133.102" y1="124.364" x2="133.102" y2="90.7555" gradientUnits="userSpaceOnUse">
<stop stop-color="#B5B7B9"/>
<stop offset="1" stop-color="#747578"/>
</linearGradient>
</defs>
</svg>
